…
## Import data. 
The import function may open a Google log in to get an authorization code in a separate browser window. Copy/paste the authorization code into the 'Console' window below.
See next chunk for manual alternative if needed; download .csv from GoogleSheet, then upload the .csv to RStudio.cloud.



```r
gs4_deauth()
ColonyData <- read_sheet("https://docs.google.com/spreadsheets/d/1DWyASxmu5DURkcegWM0Sykp9x3F3eQfMxdz0VYJ9mOI/edit?usp=sharing")

ColonyData
```

```
## # A tibble: 1,087 x 10
##    Initials_4letter YYYYMMDDHHMM Substrate Treatment col1mm2 col2mm2 col3mm2
##    <chr>            <list>       <chr>     <chr>       <dbl>   <dbl>   <dbl>
##  1 JuDe             <dbl [1]>    WhiteRoll Control      7.28   NA      NA   
##  2 JuDe             <dbl [1]>    WhiteRoll Control     13.0    NA      NA   
##  3 JuDe             <dbl [1]>    WhiteRoll Control     14.4    NA      NA   
##  4 JuDe             <dbl [1]>    WhiteRoll Control     18.9    NA      NA   
##  5 JuDe             <dbl [1]>    WhiteRoll Control     26.1    NA      NA   
##  6 JuDe             <dbl [1]>    WhiteRoll Control     30.0    NA      NA   
##  7 JuDe             <dbl [1]>    WhiteRoll Control     40.9    NA      NA   
##  8 JuDe             <dbl [1]>    WhiteRoll Control     44.4    NA      NA   
##  9 JuDe             <dbl [1]>    WhiteRoll Control     59.5     1.72    7.25
## 10 JuDe             <dbl [1]>    WhiteRoll Control     64.6     1.90   12.4 
## # … with 1,077 more rows, and 3 more variables: Temp_C <dbl>, ...9 <lgl>,
## #   ...10 <dbl>
```
…
```r
#parameters of colony specific logistic fits
Class_log %>%
  unnest(tidied) %>%
  select(-c(data, fit, predict, param)) %>%
  mutate_if(is.numeric, round, digits = 2)
```

```
## # A tibble: 33 x 9
##    Substrate   Treatment ...3   ...4 term   estimate std.error statistic p.value
##    <chr>       <chr>     <lgl> <dbl> <chr>     <dbl>     <dbl>     <dbl>   <dbl>
##  1 WhiteRoll   Control   NA       NA pmax      30.4       6.59      4.61    0   
##  2 WhiteRoll   Control   NA       NA mu         0.05      0.12      0.46    0.65
##  3 WhiteRoll   Control   NA       NA inter…     6.82     16.3       0.42    0.68
##  4 WhiteRoll   Wet       NA       NA pmax    1010.      705.        1.43    0.17
##  5 WhiteRoll   Wet       NA       NA mu         0.09      0.13      0.73    0.48
##  6 WhiteRoll   Wet       NA       NA inter…     0         0.06      0.06    0.95
##  7 Naan        Dark      NA       NA pmax     835.       74.8      11.2     0   
##  8 Naan        Dark      NA       NA mu         0.05      0        11.7     0   
##  9 Naan        Dark      NA       NA inter…     0.81      0.39      2.09    0.04
## 10 SobeysBake… Control   NA       NA pmax     122.       22.3       5.47    0   
## # … with 23 more rows
```
…
