…
Alternative
Manually Download Data from Googlesheets as .csv.
Manually Upload .csv to folder containing .Rproj
Read in .csv into ColonyData object

```r
ColonyData <- read_csv("MicroColonyData2021.csv", col_names = TRUE)
ColonyData
```

```
## # A tibble: 238 x 8
##    Initials_4letter YYYYMMDDHHMM Substrate Treatment col1mm2 col2mm2 col3mm2
##    <chr>                   <dbl> <chr>     <chr>       <dbl>   <dbl>   <dbl>
##  1 DaCa             202001171518 Cranewoo… Control     15.9       NA      NA
##  2 DaCa             202001161326 Cranewoo… Control      5.71      NA      NA
##  3 DaCa             202001161903 Cranewoo… Control     10.2       NA      NA
##  4 DaCa             202001170650 Cranewoo… Control     11.6       NA      NA
##  5 DaCa             202001170650 Cranewoo… Control     22.3       NA      NA
##  6 DaCa             202001161326 Cranewoo… Control      4.66      NA      NA
##  7 JuDe             202101221946 WhiteRoll Control      6.22      NA      NA
##  8 JuDe             202101230756 WhiteRoll Control      9.29      NA      NA
##  9 JuDe             202101232155 WhiteRoll Control     14.6       NA      NA
## 10 JuDe             202101240759 WhiteRoll Control     25.5       NA      NA
## # … with 228 more rows, and 1 more variable: Temp_C <dbl>
```
…
```r
#parameters of Colony specific logistic fits
Class_log %>%
  unnest(tidied) %>%
  select(-c(data, fit, predict, param)) %>%
  mutate_if(is.numeric, round, digits = 2)
```

```
## # A tibble: 21 x 11
##    Substrate Treatment min_y max_y max_x mu_guess term  estimate std.error
##    <chr>     <chr>     <dbl> <dbl> <dbl>    <dbl> <chr>    <dbl>     <dbl>
##  1 Cranewoo… Control    1.53 178.   67.5     0.07 mu     7.00e-2  1.30e- 1
##  2 Cranewoo… Control    1.53 178.   67.5     0.07 Inte…  1.09e+0  6.47e+ 0
##  3 Cranewoo… Control    1.53 178.   67.5     0.07 Max    8.67e+7  2.74e+14
##  4 WhiteRoll Control    6.22  36.1  96.2     0.02 mu     7.00e-2  3.00e- 2
##  5 WhiteRoll Control    6.22  36.1  96.2     0.02 Inte…  5.26e+0  2.91e+ 0
##  6 WhiteRoll Control    6.22  36.1  96.2     0.02 Max    3.12e+1  2.94e+ 0
##  7 Naan      Dark       0.04 356.  127.      0.07 mu     2.00e-2  0.      
##  8 Naan      Dark       0.04 356.  127.      0.07 Inte…  7.17e+0  1.66e+ 0
##  9 Naan      Dark       0.04 356.  127.      0.07 Max    1.71e+7  7.94e+11
## 10 SobeysBa… Control    6.42 103.   58.9     0.05 mu     4.00e-2  2.00e- 2
## # … with 11 more rows, and 2 more variables: statistic <dbl>, p.value <dbl>
```
…
