…
# Merge Data with meta data

```r
#This generates 'NA' values for ~1,000,000 rows of 'O2'; possibly the temperature rows?
TargetDataMeta <- left_join(x = TargetDataWide, y= Catalog, by = c("ExpDate", "MC", "Tube"), suffix  = c("_multi", "_cat"))

TargetDataMeta
```

```
## # A tibble: 9,349 x 55
##     time Filename CDateTime            Tube abs_time              ToD ExpDate   
##    <dbl> <chr>    <dttm>              <dbl> <dttm>              <dbl> <date>    
##  1  10.8 MultiCo… 2021-05-25 15:53:08     1 2020-01-24 07:05:01  16.8 2020-01-24
##  2  11   MultiCo… 2021-05-25 15:53:08     1 2020-01-24 07:06:01  17   2020-01-24
##  3  11.1 MultiCo… 2021-05-25 15:53:08     1 2020-01-24 07:06:31  17.1 2020-01-24
##  4  11.2 MultiCo… 2021-05-25 15:53:08     1 2020-01-24 07:07:01  17.2 2020-01-24
##  5  11.2 MultiCo… 2021-05-25 15:53:08     1 2020-01-24 07:07:31  17.2 2020-01-24
##  6  11.8 MultiCo… 2021-05-25 15:53:08     1 2020-01-24 07:10:31  17.8 2020-01-24
##  7  15.2 MultiCo… 2021-05-25 15:53:08     1 2020-01-24 07:31:01  21.2 2020-01-24
##  8  29.7 MultiCo… 2021-05-25 15:53:08     1 2020-01-24 08:58:01  11.7 2020-01-24
##  9  29.8 MultiCo… 2021-05-25 15:53:08     1 2020-01-24 08:58:31  11.8 2020-01-24
## 10  29.8 MultiCo… 2021-05-25 15:53:08     1 2020-01-24 08:59:01  11.8 2020-01-24
## # … with 9,339 more rows, and 48 more variables: MC <chr>,
## #   `actinic-lights.light-1-B450` <dbl>, `actinic-lights.light-2-B450` <dbl>,
## #   `actinic-lights.light-2-B470` <dbl>, `actinic-lights.light-3-B450` <dbl>,
## #   `actinic-lights.light-4-B450` <dbl>, `actinic-lights.light-5-R660` <dbl>,
## #   `actinic-lights.light-6-R660` <dbl>, `actinic-lights.light-7-R660` <dbl>,
## #   `actinic-lights.light-8-R660` <dbl>, actinic_par <dbl>, OD680 <dbl>,
## #   OD720 <dbl>, PrimaryOperator <chr>, Run <dbl>, Description <chr>,
## #   Motivation <chr>, doi <chr>, ProjectID <chr>, ID <chr>, Strain <chr>,
## #   Inoc_mL <dbl>, Media_mL <dbl>, ExpCul <dbl>, InnocDate <dbl>, Par_ue <dbl>,
…
